…
    ## Rows: 86 Columns: 2876

    ## ── Column specification ────────────────────────────────────────────────────────
    ## Delimiter: "\t"
    ## chr    (1): ID
    ## dbl (2875): PPI251_4, PPI251_5, PPI251_6, PPI251_8, PPI251_9, PPI251_10, PPI...

    ## 
    ## ℹ Use `spec()` to retrieve the full column specification for this data.
    ## ℹ Specify the column types or set `show_col_types = FALSE` to quiet this message.

    ## # A tibble: 86 × 2,876
    ##    ID           PPI251_4 PPI251_5 PPI251_6 PPI251_8 PPI251_9 PPI251_10 PPI251_11
    ##    <chr>           <dbl>    <dbl>    <dbl>    <dbl>    <dbl>     <dbl>     <dbl>
    ##  1 Dsim.cleaned        1     1        1           1        1      1            1
    ##  2 SRR1663528.…        1     1        1           1        1      1            1
    ##  3 SRR1663529.…        1     1        1           1        1      1            1
    ##  4 SRR1663530.…        1     0.99     1           1        1      1            1
    ##  5 SRR1663531.…        1     1        0.99        1        1      1            1
    ##  6 SRR1663532.…        1     1        0.99        1        1      1            1
    ##  7 SRR1663533.…        1     1        1           1        1      1            1
    ##  8 SRR1663534.…        1     1        1           1        1      0.99         1
    ##  9 SRR1663535.…        1     0.99     1           1        1      1            1
    ## 10 SRR1663536.…        1     1        1           1        1      1            1
    ## # … with 76 more rows, and 2,868 more variables: PPI251_12 <dbl>,
    ## #   PPI251_13 <dbl>, PPI251_14 <dbl>, PPI251_15 <dbl>, PPI251_16 <dbl>,
    ## #   PPI251_17 <dbl>, PPI251_18 <dbl>, PPI251_19 <dbl>, PPI251_20 <dbl>,
    ## #   PPI251_21 <dbl>, PPI251_22 <dbl>, PPI251_23 <dbl>, PPI251_24 <dbl>,
    ## #   PPI251_25 <dbl>, PPI251_26 <dbl>, PPI251_27 <dbl>, PPI251_28 <dbl>,
    ## #   PPI251_29 <dbl>, PPI251_30 <dbl>, PPI251_31 <dbl>, PPI251_32 <dbl>,
    ## #   PPI251_33 <dbl>, PPI251_34 <dbl>, PPI251_35 <dbl>, PPI251_36 <dbl>, …
…
