…
``` r
(full_data <- data %>% mutate(sample_id = gsub(".fastq.sort.bam", "", sample_id)) %>% inner_join(metadata, by="sample_id") %>%
  mutate(period = case_when(year<2000 ~ "<2000", year > 1999 & year < 2010 ~ "2000s", year > 2009 ~ "2010s")) %>%
  mutate(region = case_when(location %in% c("Beijing, China") ~ "Asia", location %in% c("Cameroon", "Gabon", "Ethiopia", "Guinea", "Kenya", "Nigeria", "Rwanda", "South Africa", "Tanzania", "Uganda", "Zambia", "Zimbabwe", "Congo") ~ "Africa", location %in% c("Canada", "Guadeloupe", "Harwich, MA, USA", "Ithaca, USA", "Providence, USA", "USA") ~ "America", location=="Tasmania, Australia" ~ "Oceania", study_id=="Chen2024" ~ "Asia", TRUE ~ "Europe")))
```

    ## # A tibble: 3,683,169 × 31
    ##    TEfam  sample_id    pos refbase     A     C     G     T   cov phys_cov hq_cov
    ##    <chr>  <chr>      <dbl> <chr>   <dbl> <dbl> <dbl> <dbl> <dbl>    <dbl>  <dbl>
    ##  1 PPI251 ERR6474638     0 C           0     0     0     0     0        0      0
    ##  2 PPI251 ERR6474638     1 A           0     0     0     0     0        0      0
    ##  3 PPI251 ERR6474638     2 T           0     0     0     0     0        0      0
    ##  4 PPI251 ERR6474638     3 G           0     0     0     0     0        0      0
    ##  5 PPI251 ERR6474638     4 A           0     0     0     0     0        0      0
    ##  6 PPI251 ERR6474638     5 T           0     0     0     0     0        0      0
    ##  7 PPI251 ERR6474638     6 G           0     0     0     0     0        0      0
    ##  8 PPI251 ERR6474638     7 A           0     0     0     0     0        0      0
    ##  9 PPI251 ERR6474638     8 A           0     0     0     0     0        0      0
    ## 10 PPI251 ERR6474638     9 A           0     0     0     0     0        0      0
    ## # ℹ 3,683,159 more rows
    ## # ℹ 20 more variables: snp <lgl>, refsnp <lgl>, int_del <lgl>,
    ## #   int_del_freq <lgl>, trunc_left <dbl>, trunc_right <dbl>, ins <lgl>,
    ## #   delet <lgl>, annotation <chr>, species <chr>, strain <chr>,
    ## #   publication <chr>, study <chr>, study_id <chr>, year <dbl>, location <chr>,
    ## #   lat <dbl>, lon <dbl>, period <chr>, region <chr>
…
    ## # A tibble: 2 × 2
    ##     pos sample_with_snp
    ##   <dbl>           <int>
    ## 1    31             798
    ## 2  2039               8

``` r
(dmel_31 <- full_data %>% filter(pos==31, study_id!="Kapun2021", year<2010) %>% distinct() %>% group_by(sample_id) %>% mutate(mean_cov = mean(cov)) %>% filter(mean_cov>1) %>% mutate(A=A/cov, C=C/cov, G=G/cov, T=T/cov))
```

    ## # A tibble: 262 × 32
    ## # Groups:   sample_id [262]
    ##    TEfam  sample_id     pos refbase     A        C      G       T   cov phys_cov
    ##    <chr>  <chr>       <dbl> <chr>   <dbl>    <dbl>  <dbl>   <dbl> <dbl>    <dbl>
    ##  1 PPI251 SRR097730      31 A       0.764 0        0.0348 2.02e-1  22.1        0
    ##  2 PPI251 SRR098323      31 A       0.618 0        0      3.82e-1  21.4        0
    ##  3 PPI251 SRR098324      31 A       0.444 0        0      5.56e-1  13.5        0
    ##  4 PPI251 SRR098915      31 A       0.419 0        0      5.81e-1  10.7        0
    ##  5 PPI251 SRR098916      31 A       0.438 0        0      5.62e-1  15.7        0
    ##  6 PPI251 SRR105048      31 A       0.322 0        0      6.78e-1  46.8        0
    ##  7 PPI251 SRR11460801    31 A       0.999 0.000929 0      3.55e-4  73.2        0
    ##  8 PPI251 SRR11846560    31 A       0.999 0        0      6.39e-4  75.2        0
    ##  9 PPI251 SRR13257684    31 A       0.825 0        0.0219 1.53e-1  35.3        0
    ## 10 PPI251 SRR14293140    31 A       0.646 0        0.110  2.44e-1  28.7        0
    ## # ℹ 252 more rows
    ## # ℹ 22 more variables: hq_cov <dbl>, snp <lgl>, refsnp <lgl>, int_del <lgl>,
    ## #   int_del_freq <lgl>, trunc_left <dbl>, trunc_right <dbl>, ins <lgl>,
    ## #   delet <lgl>, annotation <chr>, species <chr>, strain <chr>,
    ## #   publication <chr>, study <chr>, study_id <chr>, year <dbl>, location <chr>,
    ## #   lat <dbl>, lon <dbl>, period <chr>, region <chr>, mean_cov <dbl>
…
``` r
(dmel_31 <- full_data %>% filter(pos==31, study_id!="Kapun2021") %>% distinct() %>% group_by(sample_id) %>% mutate(mean_cov = mean(cov)) %>% filter(mean_cov>1) %>% mutate(A=A/cov, C=C/cov, G=G/cov, T=T/cov))
```

    ## # A tibble: 547 × 32
    ## # Groups:   sample_id [547]
    ##    TEfam  sample_id     pos refbase     A        C      G       T   cov phys_cov
    ##    <chr>  <chr>       <dbl> <chr>   <dbl>    <dbl>  <dbl>   <dbl> <dbl>    <dbl>
    ##  1 PPI251 SRR097730      31 A       0.764 0        0.0348 2.02e-1  22.1        0
    ##  2 PPI251 SRR098323      31 A       0.618 0        0      3.82e-1  21.4        0
    ##  3 PPI251 SRR098324      31 A       0.444 0        0      5.56e-1  13.5        0
    ##  4 PPI251 SRR098915      31 A       0.419 0        0      5.81e-1  10.7        0
    ##  5 PPI251 SRR098916      31 A       0.438 0        0      5.62e-1  15.7        0
    ##  6 PPI251 SRR105048      31 A       0.322 0        0      6.78e-1  46.8        0
    ##  7 PPI251 SRR11460801    31 A       0.999 0.000929 0      3.55e-4  73.2        0
    ##  8 PPI251 SRR11846560    31 A       0.999 0        0      6.39e-4  75.2        0
    ##  9 PPI251 SRR13257684    31 A       0.825 0        0.0219 1.53e-1  35.3        0
    ## 10 PPI251 SRR14293140    31 A       0.646 0        0.110  2.44e-1  28.7        0
    ## # ℹ 537 more rows
    ## # ℹ 22 more variables: hq_cov <dbl>, snp <lgl>, refsnp <lgl>, int_del <lgl>,
    ## #   int_del_freq <lgl>, trunc_left <dbl>, trunc_right <dbl>, ins <lgl>,
    ## #   delet <lgl>, annotation <chr>, species <chr>, strain <chr>,
    ## #   publication <chr>, study <chr>, study_id <chr>, year <dbl>, location <chr>,
    ## #   lat <dbl>, lon <dbl>, period <chr>, region <chr>, mean_cov <dbl>
…
