…
``` r
full_data <- data %>% mutate(sample_id = gsub(".fastq.sort.bam", "", sample_id)) %>% inner_join(metadata, by="sample_id") %>%
  mutate(period = case_when(year<2000 ~ "<2000", year > 1999 & year < 2010 ~ "2000s", year > 2009 ~ "2010s")) %>%
  mutate(region = case_when(location %in% c("Beijing, China") ~ "Asia", location %in% c("Cameroon", "Gabon", "Ethiopia", "Guinea", "Kenya", "Nigeria", "Rwanda", "South Africa", "Tanzania", "Uganda", "Zambia", "Zimbabwe") ~ "Africa", location %in% c("Canada", "Guadeloupe", "Harwich, MA, USA", "Ithaca, USA", "Providence, USA", "USA") ~ "America", location=="Tasmania, Australia" ~ "Oceania", study_id=="Chen2024" ~ "Asia", TRUE ~ "Europe"))
```

``` r
(snp2040_dmel <- full_data %>% filter(pos==2039, hq_cov>1, study_id!="Kapun2021") %>% mutate(A=A/cov, C=C/cov, G=G/cov, T=T/cov) %>% filter(species=="D. melanogaster"))
```

    ## # A tibble: 840 × 31
    ##    TEfam  sample_id     pos refbase      A       C     G        T   cov phys_cov
    ##    <chr>  <chr>       <dbl> <chr>    <dbl>   <dbl> <dbl>    <dbl> <dbl>    <dbl>
    ##  1 PPI251 SRR097730    2039 G       0      0.00193 0.998 0         9.84        0
    ##  2 PPI251 SRR098323    2039 G       0.0263 0       0.974 0         5.97        0
    ##  3 PPI251 SRR098324    2039 G       0      0       1     0         4.95        0
    ##  4 PPI251 SRR098916    2039 G       0      0       1     0         2.73        0
    ##  5 PPI251 SRR105048    2039 G       0      0       1     0         6.41        0
    ##  6 PPI251 SRR11460801  2039 G       0      0       0.999 0.000765 22.2         0
    ##  7 PPI251 SRR11846560  2039 G       0      0.00104 0.998 0.00104  46.2         0
    ##  8 PPI251 SRR13257684  2039 G       0      0       1     0         9.36        0
    ##  9 PPI251 SRR14293140  2039 G       0      0       1     0         4.02        0
    ## 10 PPI251 SRR14293191  2039 G       0      0       1     0         3.43        0
    ## # ℹ 830 more rows
    ## # ℹ 21 more variables: hq_cov <dbl>, snp <lgl>, refsnp <lgl>, int_del <lgl>,
    ## #   int_del_freq <lgl>, trunc_left <dbl>, trunc_right <dbl>, ins <lgl>,
    ## #   delet <lgl>, annotation <chr>, species <chr>, strain <chr>,
    ## #   publication <chr>, study <chr>, study_id <chr>, year <dbl>, location <chr>,
    ## #   lat <dbl>, lon <dbl>, period <chr>, region <chr>
…
    ## Warning: Removed 2 rows containing missing values or values outside the scale range
    ## (`geom_point()`).

``` r
pele_year <- full_data %>% filter(pos==2039, hq_cov>1, study_id!="Kapun2021") %>% mutate(A=A/cov, C=C/cov, G=G/cov, T=T/cov) %>% mutate(sample_year = paste0(sample_id, " (", year, ")")) %>% mutate(label_colors = case_when(region=="Africa"~"red", region=="America"~"darkgreen", region=="Europe"~"blue", region=="Oceania"~"violet", region=="Asia"~"orange")) %>% distinct()

sample_order <- pele_year %>% select(sample_year, year) %>% arrange(year) %>% select(sample_year) %>% pull()
pele_year$sample_year <- factor(pele_year$sample_year, levels = sample_order)
labels_order <- pele_year %>% select(sample_year, year, label_colors) %>% arrange(year) %>% select(label_colors) %>% pull()

pele_year %>% select(sample_year) %>% distinct
```

    ## # A tibble: 480 × 1
    ##    sample_year       
    ##    <fct>             
    ##  1 SRR097730 (2002)  
    ##  2 SRR098323 (2005)  
    ##  3 SRR098324 (2005)  
    ##  4 SRR098916 (2004)  
    ##  5 SRR105048 (2004)  
    ##  6 SRR11460801 (1975)
    ##  7 SRR11846560 (1967)
    ##  8 SRR13257684 (1975)
    ##  9 SRR14293140 (1975)
    ## 10 SRR14293191 (1975)
    ## # ℹ 470 more rows
…
    ## `summarise()` has grouped output by 'sample_id', 'sequence', 'year', 'period',
    ## 'lat', 'lon', 'region'. You can override using the `.groups` argument.

    ## # A tibble: 1,614 × 11
    ## # Groups:   sample_id, year, period, lat, lon, region [807]
    ##    sample_id  year period   lat   lon region location difference status sequence
    ##    <chr>     <dbl> <chr>  <dbl> <dbl> <chr>  <chr>         <dbl> <chr>  <chr>   
    ##  1 SRR097730  2002 2000s     -2    14 Africa Gabon          16.9 full_… internal
    ##  2 SRR097730  2002 2000s     -2    14 Africa Gabon          16.9 full_… terminal
    ##  3 SRR098323  2005 2000s      1    33 Africa Uganda         18.7 full_… internal
    ##  4 SRR098323  2005 2000s      1    33 Africa Uganda         18.7 full_… terminal
    ##  5 SRR098324  2005 2000s      1    33 Africa Uganda         12.3 full_… internal
    ##  6 SRR098324  2005 2000s      1    33 Africa Uganda         12.3 full_… terminal
    ##  7 SRR098915  2004 2000s      6    10 Africa Cameroon       12.2 no_fu… internal
    ##  8 SRR098915  2004 2000s      6    10 Africa Cameroon       12.2 no_fu… terminal
    ##  9 SRR098916  2004 2000s      6    10 Africa Cameroon       19.1 no_fu… internal
    ## 10 SRR098916  2004 2000s      6    10 Africa Cameroon       19.1 no_fu… terminal
    ## # ℹ 1,604 more rows
    ## # ℹ 1 more variable: coverage <dbl>
…
